word,n
можем,23
соответственно,21
функции,18
использовать,12
помощью,12
функция,12
какие,10
контекст,10
стейт,10
либо,9
фанкшен,9
значение,8
какое,8
юз,8
говоря,7
данные,7
принципе,7
внутри,6
грубо,6
объект,6
экшен,6
какую,5
компонент,5
компонентов,5
массив,5
нужен,5
переменную,5
помню,5
реакт,5
состояние,5
библиотека,4
вроде,4
дерево,4
каких,4
компонента,4
мэп,4
отличие,4
первое,4
переменная,4
плюс,4
понял,4
редюсер,4
стой,4
узел,4
управлять,4
фаза,4
фильтр,4
экспрешн,4
аштеемельку,3
взаимно,3
возможно,3
глобальное,3
значения,3
изменение,3
используется,3
конст,3
менять,3
например,3
новое,3
обновления,3
основное,3
позволяет,3
поместить,3
правильно,3
пропсы,3
работал,3
редакс,3
редьюс,3
реф,3
смотрит,3
собственно,3
стор,3
тема,3
функцию,3
холиварная,3
хранить,3
элементов,3
аргументом,2
вар,2
вернуть,2
весит,2
ветку,2
вида,2
видимости,2
виртуальный,2
вложенная,2
возвращает,2
вопросы,2
вызвать,2
вычислений,2
вышестоящего,2
говорю,2
говорят,2
давай,2
далее,2
данных,2
декларейшн,2
деле,2
демонтирования,2
дерева,2
джаваскрипт,2
диспатч,2
едюсер,2
жизненным,2
зис,2
знаком,2
знаю,2
изменился,2
изменить,2
изменять,2
имеют,2
интересно,2
используются,2
каком,2
килобайта,2
классно,2
код,2
контекстом,2
логика,2
массива,2
маунд,2
минус,2
михаил,2
мобикс,2
мобикса,2
монтирования,2
наверное,2
названия,2
написать,2
насколько,2
нету,2
никакого,2
область,2
общем,2
объявили,2
объявления,2
одну,2
описал,2
остается,2
пачку,2
пейдж,2
первых,2
перерисовка,2
пишем,2
поля,2
поэтому,2
преимущество,2
проекта,2
прокидывать,2
прям,2
рамках,2
рассказать,2
редаксе,2
результат,2
рендер,2
рендеринг,2
руками,2
самовызывающаяся,2
сео,2
сколпа,2
скрипты,2
словах,2
случае,2
слышу,2
согласования,2
создаем,2
создать,2
состоянием,2
способ,2
спросишь,2
счастливо,2
такого,2
типа,2
фазы,2
хранилище,2
хуки,2
циклом,2
чистая,2
читать,2
экшена,2
элементу,2
эффект,2
a,1
cимвол,1
абсервера,1
авто,1
адаптировался,1
аккумулятору,1
акцентируют,1
алгоритм,1
алгоритмов,1
алгоритмы,1
альтернативный,1
английским,1
ангуляр,1
андефайнд,1
анонимные,1
апдейт,1
апи,1
аплекейшин,1
апликейшн,1
аргументс,1
аргументы,1
архитектурой,1
асин,1
асинклет,1
асинхронной,1
асинхронных,1
аштеемелька,1
аштиемельки,1
балдери,1
банда,1
берёт,1
бесконечно,1
бесплатная,1
блочную,1
боку,1
большей,1
большое,1
браузер,1
браузере,1
важна,1
важно,1
варину,1
велд,1
вернемся,1
вернул,1
верхам,1
верхней,1
верхнеуровневую,1
верхняя,1
ветка,1
веткой,1
видно,1
видоизмененную,1
видоизменяем,1
видоизменяет,1
виду,1
вижу,1
вложенной,1
вложенность,1
внимание,1
внутренние,1
возвращают,1
возможность,1
впак,1
всплывает,1
всплывать,1
вспомню,1
вторая,1
вторых,1
выглядит,1
вызвали,1
вызове,1
вызывали,1
вызывать,1
выражение,1
выражении,1
вытащить,1
выходных,1
вышестоящий,1
генераторы,1
генерить,1
глобальную,1
глобальный,1
голове,1
грамотно,1
двигаться,1
дебажить,1
делалось,1
деструктуризация,1
джеесовские,1
джейк,1
джейс,1
дид,1
дикмаунт,1
динамически,1
динамическим,1
диспатчей,1
доза,1
дольше,1
достать,1
доступ,1
доступна,1
дочерняя,1
друга,1
другого,1
другую,1
думаю,1
духе,1
ер,1
желание,1
жизненного,1
зависимости,1
зависит,1
задавай,1
заданным,1
задачка,1
закидывать,1
закинуть,1
закончилась,1
замкнет,1
замкнуть,1
замыкание,1
замыкать,1
занимаетесь,1
заново,1
записать,1
заполняют,1
затрагивать,1
здравствуйте,1
знакомо,1
значениями,1
идентифицируют,1
идёт,1
избежать,1
изменении,1
изменений,1
изменению,1
изменил,1
изменилась,1
изменили,1
изменились,1
изменилось,1
изменится,1
изменяем,1
икс,1
инструмент,1
интервалов,1
интерфейс,1
исключением,1
исключительно,1
используем,1
итерации,1
каждой,1
каждому,1
каким,1
какого,1
какому,1
капотом,1
каренд,1
качественно,1
каша,1
каширование,1
квери,1
кейс,1
кейса,1
кейсов,1
кини,1
класс,1
классах,1
классический,1
классическом,1
классового,1
классовом,1
классовый,1
классовых,1
классы,1
ключевое,1
ключевой,1
ко,1
ковейд,1
кода,1
колбек,1
колбэк,1
колбэком,1
количество,1
коллбек,1
компани,1
компоненте,1
компонетапдэйт,1
конкретные,1
конкретный,1
конста,1
консте,1
констл,1
контролировать,1
конференция,1
конфиг,1
корневой,1
которое,1
котором,1
которым,1
кратко,1
крейд,1
криэйтеры,1
крути,1
кусочки,1
куча,1
легкие,1
легковесный,1
легче,1
лишних,1
лэт,1
максимум,1
манипуляций,1
массивы,1
медиат,1
мелкий,1
мемозировать,1
мемоизация,1
менеджер,1
менялся,1
меняют,1
месте,1
методы,1
механизм,1
мидл,1
минимум,1
минусы,1
мобекс,1
могла,1
мойбиксе,1
момент,1
мутабельного,1
мысль,1
наблюдателя,1
наверх,1
название,1
назвать,1
называется,1
назывался,1
накапливает,1
накладывает,1
накста,1
написал,1
напрямую,1
нарваться,1
наслаждаться,1
наследование,1
наследовать,1
начал,1
началу,1
начну,1
начнём,1
нашем,1
недели,1
недостатках,1
недостаток,1
некоторому,1
некоторые,1
некста,1
необходимо,1
неполучилось,1
новом,1
новые,1
нода,1
нормально,1
нубикс,1
нужна,1
обернув,1
обернутая,1
обладает,1
обновлять,1
оборачиваем,1
обход,1
общих,1
объекты,1
объявленные,1
объявлено,1
объявляем,1
объяснил,1
однозначно,1
ок,1
окей,1
ооо,1
ооп,1
определению,1
определяться,1
оптимизацией,1
оптимизацию,1
оптимизация,1
оптимизирующих,1
основная,1
основной,1
основном,1
основных,1
особо,1
остановился,1
отдавать,1
отен,1
отладке,1
относительно,1
отработал,1
отследить,1
оттуда,1
отфильтровывает,1
очевидное,1
ошибка,1
ошибки,1
пайлок,1
парень,1
паттерн,1
передаем,1
переиспользовать,1
переменные,1
переменными,1
перемену,1
переменые,1
перерисовалось,1
перерисовки,1
перерисовку,1
перерисовок,1
перерисовывает,1
пересчитывать,1
пишу,1
пишут,1
плане,1
планы,1
плохо,1
поведения,1
погоди,1
подгружать,1
подключать,1
подобное,1
подразумеваешь,1
подразумеваю,1
подредюсеров,1
подробно,1
подсчет,1
подумал,1
подумаю,1
позитивный,1
поинтереснее,1
поле,1
полезная,1
положим,1
помещаем,1
помогать,1
понадобиться,1
понимании,1
понравилось,1
понравился,1
понятно,1
пописать,1
поподробней,1
попроще,1
посложнее,1
потерял,1
потяжелее,1
пошёл,1
предварительно,1
представить,1
представляю,1
преимущества,1
преобразовать,1
привет,1
применяется,1
принимает,1
присмотрюсь,1
причина,1
пришли,1
приятно,1
проблем,1
проблему,1
проблемы,1
пробсдрининга,1
провайдер,1
программирования,1
произошло,1
прокидываем,1
прокидывает,1
прокинули,1
прокинуть,1
промежуток,1
проместить,1
промиси,1
пропустить,1
простому,1
простым,1
проходил,1
проще,1
прямых,1
путём,1
работает,1
равно,1
разбиваем,1
разговаривать,1
раздувается,1
различные,1
различных,1
разный,1
разработке,1
разработкой,1
разработчики,1
разумеется,1
разы,1
расскажешь,1
расскажу,1
рассказали,1
реакта,1
реакте,1
реализует,1
редакc,1
редис,1
редко,1
редюсере,1
редюсеров,1
реконстилешн,1
рендере,1
рест,1
речь,1
решает,1
роботы,1
самая,1
самое,1
своими,1
сделали,1
сервер,1
сет,1
символ,1
синтаксис,1
ситуации,1
ситуацию,1
скажу,1
скобки,1
скобочке,1
скоп,1
скорее,1
скорость,1
скоуб,1
скрипт,1
следующей,1
словарь,1
сложнее,1
сложней,1
сложно,1
сложное,1
сложные,1
случайно,1
случаях,1
слышим,1
слышно,1
смогу,1
смотря,1
смотрят,1
собеседований,1
собранный,1
согласен,1
содержит,1
сосредоточиться,1
сохраняем,1
сочетание,1
спред,1
спросил,1
сравнивает,1
сравнить,1
ссылку,1
стандарт,1
становится,1
старым,1
стейд,1
стейта,1
степени,1
сторы,1
странички,1
стрелочная,1
стрелочной,1
стрелочные,1
строится,1
сформировать,1
сходу,1
считаю,1
счётчик,1
таймаутов,1
таком,1
тб,1
тд,1
тела,1
термином,1
тип,1
типом,1
типу,1
точно,1
тп,1
третьей,1
тру,1
тутже,1
тяжелые,1
тяжелый,1
уверены,1
увидит,1
удобно,1
удобный,1
управления,1
условию,1
услышал,1
уходят,1
фаз,1
фазами,1
фазу,1
фанкшин,1
фанкшн,1
фаншен,1
фидбек,1
флаг,1
фреймворк,1
функционального,1
функциональности,1
функциональность,1
функциональную,1
функциональных,1
функциями,1
хостинг,1
хостинга,1
хотим,1
хранилища,1
хранится,1
хуках,1
целом,1
цикла,1
части,1
чертах,1
честно,1
чём,1
шрифт,1
штука,1
шуткомпонента,1
экшенам,1
экшенах,1
экшенов,1
экшн,1
элемент,1
элементы,1
энджерикс,1
энное,1
этап,1
эффекте,1
эффектор,1
юзмема,1
юзреф,1
юикс,1
юс,1
юскалбэк,1
явно,1
явного,1
