bigram,n
грубо говоря,7
жизненного цикла,4
какое значение,4
какую переменную,4
область видимости,4
реакт контекст,4
какие данные,3
какие конкретные,3
компонент нужен,3
конкретные вопросы,3
менять состояние,3
мэп редьюс,3
нашей компании,3
основное отличие,3
помощью можем,3
редьюс фильтр,3
стой стой,3
холиварная тема,3
юз контекст,3
анонимные функции,2
биг дата,2
бла бла,2
блок внутренний,2
видимости блок,2
вложенная функция,2
внутри использовать,2
вышестоящего сколпа,2
вью писал,2
глобальное хранилище,2
дерево элементов,2
держать курсе,2
жизненным циклом,2
знаешь знаешь,2
знаешь принципе,2
значение функции,2
изменяет ситуацию,2
ин вок,2
какие бывают,2
каких вычислений,2
классно знаешь,2
классовый компонент,2
компонента соответственно,2
компонентов помощью,2
консте изменить,2
контекст библиотека,2
контекст юз,2
либо какие,2
либо можем,2
либо помощью,2
можем использовать,2
можем поместить,2
можем управлять,2
молодец классно,2
насколько помню,2
нашего бизнеса,2
нашему сервису,2
никакого значения,2
новое значение,2
поводу хуков,2
помощью стейт,2
правильно молодец,2
правильно понял,2
принципе правильно,2
реакт редукс,2
результат каких,2
самовызывающаяся функция,2
ситуацию область,2
собственно говоря,2
современный стандарт,2
соответственно фаза,2
стейт можем,2
стрелочные функции,2
фаза обновления,2
фанкшен экспрешн,2
функция смотрит,2
хостинг смысле,2
экшен экшен,2
юз едюсер,2
юз эффект,2
cимвол пейдж,1
абсервера данные,1
авто согласования,1
автомат калашникова,1
ага кстати,1
ага редакс,1
агентствам скажем,1
адаптировался ключевой,1
айайф эй,1
айти продукты,1
айти рекрутер,1
айти эйчар,1
аккумулятору позволяет,1
акцентируют внимание,1
алгоритм назывался,1
алгоритмов куча,1
алгоритмы используются,1
альтернативный способ,1
анализировать принципе,1
анализировать различных,1
аналитические сервисы,1
аналитические сре,1
аналитический подход,1
аналитическом срезе,1
английски произносить,1
английским честно,1
английское умное,1
ангуляр собственно,1
андефайнд значение,1
анонимная функция,1
анонимную функцию,1
апдейт позволяет,1
апи которым,1
аплекейшин проблемы,1
аргументом нужен,1
аргументом пайлок,1
аргументс насколько,1
аргументы тела,1
архитектурой видоизмененную,1
асин ковейд,1
асинхронной например,1
асинхронных экшенах,1
аштеемелька скрипты,1
аштеемельку заполняют,1
аштеемельку скрипты,1
аштеемельку соответственно,1
аштиемельки cимвол,1
банда раздувается,1
банкам продуктов,1
банков ритейлеров,1
бац счётчики,1
бегать искать,1
берёт экшен,1
бесконечно вложенность,1
бесплатная конференция,1
библиотека виду,1
библиотека реакт,1
библиотека управления,1
библиотеке реакт,1
библиотеки компонентов,1
библиотекой постепенно,1
библиотеку компонентов,1
бизнес занимаемся,1
бизнес классно,1
бизнеса биг,1
бизнеса нашей,1
бизнеса поскольку,1
бизнесом бывают,1
бла функции,1
ближе большей,1
блин организовать,1
блоги дикори,1
блок функция,1
блочную область,1
боксов предусматри,1
боку плохо,1
большая крутая,1
большая нашего,1
большей написали,1
большей части,1
большие информации,1
большое дерево,1
большое счастливо,1
бороться рассказал,1
браузер реакт,1
браузере работает,1
будущем представляют,1
бук дизайнер,1
буквально минуты,1
бывают ситуации,1
бывают современные,1
быстрее въехать,1
быстрый манипулирует,1
быстрым основная,1
важна перерисовка,1
важно можем,1
вакансию фрондент,1
валд ангуляр,1
вар джеваскрипт,1
вар конс,1
вар либо,1
вар переменная,1
вар получится,1
вар принципе,1
варину подключать,1
варом остался,1
веб интерфейса,1
веб интерфейсов,1
вебинтерфейс общения,1
велд ангуляр,1
велд добавил,1
великолепно классно,1
вернемся медиат,1
вернул тру,1
вернусь обратно,1
вернуть джейс,1
вернуть другую,1
вероятности привет,1
верхам вар,1
верхней функции,1
верхнеуровневую функцию,1
верхняя увидит,1
весит килобайта,1
весит разы,1
ветка изменилась,1
веткой дерева,1
ветку веткой,1
ветку перерисовывает,1
вещах мемоизация,1
вещи опыт,1
взаимно взаимно,1
вида коллбек,1
вида массив,1
виде фнс,1
видели наверное,1
видео связи,1
виджет принципе,1
видимо изначально,1
видимости изменять,1
видимости конст,1
видишь класс,1
видна антифайн,1
видно видно,1
видно продает,1
видно собственно,1
видно таня,1
видоизмененную глобальный,1
видоизменяем стейт,1
видоизменяет фильтр,1
виду валд,1
виду принципе,1
виду редукс,1
вижу ошибки,1
виз контекст,1
виртуальный браузер,1
виртуальный виртуальный,1
виртуальный нужен,1
виртуальный разработчики,1
виртуальным домом,1
вложенной функции,1
вложенность компонентов,1
вложености компонентов,1
вместо вар,1
вместо используют,1
внешнего области,1
внимание выражении,1
внимательно слушал,1
внимательно слышать,1
внутренние поля,1
внутри вложенной,1
внутри департамента,1
внутри замыкать,1
внутри используется,1
внутри компании,1
внутри поменять,1
внутри функции,1
возвращает объект,1
возвращает элементы,1
возвращают какое,1
возможно аргументом,1
возможно возможно,1
возможность боку,1
возможность михаилу,1
возможность расшарил,1
вок ин,1
вок функщин,1
вопросы задавай,1
вопросы задам,1
вопросы закончились,1
вопросы легкие,1
вопросы сути,1
ворк бла,1
воскриптом варом,1
впак конфиг,1
впечатления текущая,1
вроде говорят,1
вроде ок,1
вроде услышал,1
вроде читать,1
всей модели,1
вскоре принимать,1
всплывает доступна,1
всплывать можем,1
всплывать нарваться,1
вспомню генераторы,1
всякие точнее,1
всяких разных,1
вторая очевидное,1
вторых можем,1
въехать быстрее,1
выбивает чек,1
выглядит окей,1
вызвали экшен,1
вызвать асинхронной,1
вызвать диспатч,1
вызове экшена,1
вызывали внутри,1
вызывать рендеринг,1
вынуждены анализировать,1
выпадал связи,1
выполняется листочке,1
выражение самовызывающаяся,1
выражении дерево,1
вырубилось обратно,1
вырубилось смотри,1
выстраивали банкам,1
выстрелить ногу,1
выходит знакомы,1
выходных наверное,1
вычислений пересчитывать,1
вычислений соответственно,1
вышестоящий скоп,1
вьюкс накст,1
генераторы какие,1
генерить аштеемельку,1
главного веб,1
глобально воскриптом,1
глобальное такого,1
глобальной задачей,1
глобальную область,1
глобальный стор,1
глядишь сообразишь,1
говоришь ой,1
говоришь прояснять,1
говоришь слимп,1
говоришь таня,1
говорю мысль,1
говорю редакс,1
говоря всплывает,1
говоря изменилось,1
говоря можем,1
говоря нужен,1
говоря сложно,1
говоря сосредоточиться,1
говоря третьей,1
говоря чём,1
говоря экшенам,1
говорят фидбек,1
говорят холиварная,1
голове каша,1
гонятся оптимизацией,1
грабли выстрелить,1
грамотно английски,1
грамотно собранный,1
давай дала,1
давай каким,1
давай начнем,1
давай начнём,1
давай немножко,1
давай плавно,1
давай рассказывай,1
давай фанкшин,1
дала извини,1
далее огромное,1
далее первую,1
далее правильно,1
далее соответственно,1
дам возможность,1
данные изменение,1
данные изменил,1
данные изменили,1
данные подгружать,1
данные прокинули,1
данные узел,1
данные функции,1
данных данные,1
данных записать,1
дата вынуждены,1
дата поскольку,1
двигаться менялся,1
двойной двойной,1
двойной тройной,1
двум элементам,1
дебагингом принципе,1
дебажить нету,1
действие долгих,1
действий понимаешь,1
действий экшн,1
декларейшн напрямую,1
декларейшн начну,1
делалось классовом,1
деле видна,1
деле задача,1
деле максим,1
деле написать,1
деле представляю,1
деле рассказал,1
делу речь,1
демонтирования классового,1
демонтирования помощью,1
департамента айти,1
дерева грубо,1
дерева смотрит,1
дерево компонентов,1
дерево просов,1
дерево соответственно,1
деструктуризация спред,1
десятки пробсов,1
десяток однотипных,1
деталях связанных,1
джава скрипт,1
джаваскрипт конкретный,1
джаваскрипт либо,1
джаваскрипт помощью,1
джаваскрипт скрипт,1
джаваскрипта простенькое,1
джаваскриптовыми объектами,1
джеваскрипт написать,1
джеесовские соответственно,1
джейк квери,1
джейс икс,1
джеквери виджет,1
джеквери джеквери,1
дживоскриптом новым,1
джиквери неудобно,1
дид маунд,1
дизайнер рисует,1
дикори разрабатывался,1
динамически аштеемельку,1
динамическим возможно,1
директором займёт,1
диспатч функция,1
диспатчей соответственно,1
дня целом,1
добавил молодец,1
добавили среднем,1
добавить давай,1
добавить комментарий,1
добавляют глобально,1
доза отен,1
документооборот маркировка,1
долгих действий,1
долгос отчет,1
долей вероятности,1
должна изменении,1
домом виртуальным,1
допустим рекдексе,1
достаточно сложный,1
достаточно толковый,1
достаточно устаревшие,1
достаточно электронный,1
доступ элементу,1
доступна объявили,1
дочерняя функция,1
друга занимаемся,1
друга переиспользовать,1
другим гонятся,1
другим синтаксисом,1
другого вида,1
другую функцию,1
думаю продлится,1
думаю уверен,1
единственный классовый,1
едюсер считаю,1
едюсер юз,1
емаил долей,1
ер балдери,1
желание код,1
желания следовать,1
жизни нужна,1
жизни пишут,1
забаговать страшной,1
заведомо немножко,1
заведомо сломанная,1
зависимости тип,1
зависит деле,1
загруженой тарам,1
задавал расскажещь,1
задам простой,1
заданным типом,1
задать глядишь,1
задача думаю,1
задача шутка,1
задача элементами,1
задачах простой,1
задачей перевода,1
задачи внутри,1
задачи хочу,1
задачки собеседования,1
займёт пару,1
закидывать какие,1
закинуть оттуда,1
закончила добавить,1
замкнет значение,1
замкнуть какое,1
замыкание механизм,1
замыкание хостинг,1
замыкать новое,1
занимаемся максим,1
занимаемся работой,1
занимаемся словах,1
занимаемся фронта,1
занимаетесь какие,1
занимается развитием,1
занимается узлами,1
заниматься глобальной,1
записать словарь,1
запланировал вскоре,1
заполняют роботы,1
запросы бэкенду,1
запросы серверу,1
заснуть пэха,1
заставлять код,1
затрагивать перерисовку,1
затролить попробую,1
звать михаил,1
здравомыслящим надежным,1
здравствуйте слышно,1
зимние шапки,1
зис контекст,1
зис стрелочная,1
знает циклическая,1
знаешь айайф,1
знаешь английское,1
знаешь классный,1
знаешь классных,1
знаешь мобекс,1
знаешь молодец,1
знаешь мэп,1
знаешь наверное,1
знаешь переруливаем,1
знаешь редакс,1
знаешь смотрю,1
знаешь чём,1
знаком глобальное,1
знакома проблема,1
знакомо термином,1
знакомы понятия,1
знакомьтесь михаил,1
знаний можешь,1
знания привёл,1
знатоков ин,1
значение данные,1
значение дочерняя,1
значение изменении,1
значение использовать,1
значение объявлено,1
значение реф,1
значение случае,1
значения внутри,1
значения хранить,1
значениями какое,1
знаю вар,1
знаю двойной,1
знаю контекст,1
знаю понятно,1
знаю продаже,1
знаю хадкорные,1
зум бесплатный,1
идентифицируют помощью,1
идет практическом,1
идёт речь,1
избежать лишних,1
известное интересное,1
извини вырубилось,1
извините выпадал,1
изменение адаптировался,1
изменение затрагивать,1
изменение произошло,1
изменении важна,1
изменении стейта,1
изменений пачку,1
изменению стейта,1
изменения предсказуемые,1
изменил перерисовалось,1
изменилась ветку,1
изменили интерфейс,1
изменились пропсы,1
изменилось принципе,1
изменился стейд,1
изменился стейт,1
изменится перерисовка,1
изменить каком,1
изменить поместить,1
изменяем состояние,1
изменять исключением,1
изменять отличие,1
изначально библиотекой,1
изрев контекст,1
изучал ой,1
иконствами какие,1
икс месте,1
илюшка задачу,1
имени логично,1
имею виду,1
имеют блочную,1
имеют названия,1
имеющая имени,1
ин медиа,1
инструмент данные,1
интегрировалась синтаксис,1
интервалов либо,1
интересно взаимно,1
интересное спрашивают,1
интернете приходили,1
интернетмагазине далее,1
интерфейс изменение,1
интерфейса веб,1
интерфейсов наших,1
интл вок,1
информации чеков,1
информацию храним,1
информацию чеке,1
искать непонятно,1
исключением массив,1
исключительно первое,1
использовал код,1
использованием джеквери,1
использовать асинклет,1
использовать внутри,1
использовать деле,1
использовать ключевое,1
использовать например,1
использовать объявили,1
использовать ооп,1
использовать переменными,1
использовать перемену,1
использовать предварительно,1
использовать фреймворк,1
используем изменяем,1
используемые говоришь,1
использует реакт,1
используется грубо,1
используется немножко,1
используется паттерн,1
используется пропсы,1
используют редукс,1
используются редко,1
используются сложные,1
исходя желания,1
итерации подсчет,1
ищу такого,1
кабинет клиента,1
кабинет нашем,1
кабинетов фронтенд,1
каждой итерации,1
каждому элементу,1
какие асин,1
какие вещи,1
какие впечатления,1
какие задачи,1
какие значения,1
какие кусочки,1
какие объекты,1
какие отличия,1
какие планы,1
какие этап,1
каким динамическим,1
каким правильный,1
каким ценам,1
каких данных,1
каких консен,1
каких таймаутов,1
каких торговых,1
какого нужна,1
какого соответственно,1
какое выражение,1
какое далее,1
какое новое,1
какое простое,1
какое сформировать,1
каком компонентов,1
каком плане,1
какому условию,1
какую мидл,1
калашникова понятное,1
кампании выстраивали,1
кандидат миша,1
кандидатов вакансию,1
капотом строится,1
каренд можем,1
касс любом,1
касса выбивает,1
касса стране,1
кассы личный,1
каунтером увеличиваться,1
каширование сохраняем,1
квери прямых,1
кейс сео,1
кейса кейс,1
кейсов разработке,1
кейсы преподаватель,1
килобайта весит,1
килобайта помню,1
кини пропсы,1
класс описал,1
класс поводу,1
классах знаешь,1
классах работал,1
классики редакса,1
классический способ,1
классическом понимании,1
классная компания,1
классно деле,1
классно классно,1
классно назвал,1
классно понимаешь,1
классно понял,1
классно принципе,1
классно работает,1
классно слушай,1
классно стрелочные,1
классные потоки,1
классный компонент,1
классных знатоков,1
классового компонента,1
классовом компоненте,1
классовым рендере,1
классовых компонентов,1
классы лэт,1
клиента партнеры,1
клиентами команда,1
клиентов мелких,1
клиентов милиона,1
клиенты подключают,1
клиенты ритейлеры,1
ключевое аргументс,1
ключевой момент,1
ко нужен,1
ковейд промиси,1
код достаточно,1
код листочке,1
код написать,1
код напрямую,1
код отлаживаемый,1
код пописать,1
кода быстрее,1
кода становится,1
коде нашёл,1
колбек используется,1
колбэк вернул,1
колбэк юз,1
колбэком либо,1
количество клиентов,1
количество подредюсеров,1
коллбек передаем,1
команда занимается,1
команда мишина,1
командой половину,1
комментарий подбираю,1
компани дикмаунт,1
компании звать,1
компании командой,1
компании повторяться,1
компании соврала,1
компании согласования,1
компании третья,1
компания которую,1
компания надежным,1
компаниях айти,1
компаниях какие,1
компонент дид,1
компонент маунд,1
компонент обладает,1
компонента либо,1
компонента положим,1
компоненте помощью,1
компонентов внутри,1
компонентов общем,1
компонентов пишу,1
компонентов приходится,1
компонентов реакт,1
компонентов элементов,1
компоненту жизненного,1
компоненты жизненного,1
компонетапдэйт компонент,1
конкретно попадешь,1
конкретные нюансы,1
конкретный промежуток,1
конкретный реакт,1
конкретных вещах,1
конс отличаются,1
конс типа,1
консен боксов,1
конст имеют,1
конст ладно,1
конст разумеется,1
конст соответственно,1
конста констл,1
констл стандарт,1
конструкции изменить,1
контекст глобальное,1
контекст нужна,1
контекст плавнинько,1
контекст пример,1
контекст рамках,1
контекст соответственно,1
контекст фанкшен,1
контекстом зис,1
контекстом знаком,1
контролировать сложней,1
конференция закончилась,1
конфиг правильно,1
конца недели,1
корневой редюсер,1
короче применять,1
короче приятно,1
корректно помощи,1
которое реализует,1
котором можем,1
которую проходит,1
которым можем,1
крайне редко,1
крайняя операция,1
красиво рассказала,1
красивые штуки,1
красивый тестовый,1
красивых теоретических,1
кратко нужна,1
крейд контекст,1
криэйтеры наверное,1
криэйтеры функция,1
крупных торговых,1
крутая задача,1
кстати анонимные,1
кстати внимательно,1
кстати знаешь,1
кстати консте,1
кстати таня,1
курсе конца,1
кусочки функциональности,1
куча общем,1
кучу торговли,1
ладно давай,1
ладно ищу,1
ладно какие,1
ладно классно,1
ладно короче,1
ладно корректно,1
ладно ладно,1
ладно остаёмся,1
ладно помнишь,1
ладно работал,1
ладно хотел,1
ладно хукам,1
легаси бегать,1
легкие какие,1
легковесный бесплатная,1
легче плюс,1
лень занимаемся,1
летом другому,1
либо глобальную,1
либо простым,1
либо реакт,1
либо хранить,1
лидер фротенд,1
линк ворк,1
листочке прямом,1
листочке хукам,1
личный кабинет,1
личных кабинетов,1
лишних перерисовок,1
лк кабинет,1
логика изменению,1
логика определению,1
логично ин,1
логично понимаешь,1
лужники молока,1
лэт изменяет,1
лэт конст,1
любая тяжеловесная,1
любом магазине,1
любых касс,1
любых тяжеловесных,1
любят мобикс,1
любят обсуждать,1
любят реакт,1
магазине интернетмагазине,1
магазинов некоторые,1
магазинчика программе,1
максим добрый,1
максим пару,1
максим приветствую,1
максим скажи,1
максим сможете,1
максим фидбек,1
максим хотела,1
максимально быстрым,1
максимально оптимизировано,1
максиму словах,1
максимум кини,1
маленьких рассказывай,1
манипулирует джаваскриптовыми,1
манипуляций руками,1
маркировка товаров,1
марок средней,1
массив вида,1
массив возвращает,1
массив другого,1
массив объект,1
массив случае,1
массива видоизменяет,1
массива пришли,1
массивы избежать,1
маунд компонент,1
маунд функции,1
медиа интл,1
медиа линк,1
мелкий проект,1
мелкий шрифт,1
мелких ретейлеров,1
мемай подсказываешь,1
мемозировать функции,1
мемоизация простому,1
менеджер решает,1
менялся стор,1
менять поля,1
менять чёрт,1
меняют нету,1
месте максимум,1
месте перемену,1
методы массива,1
метро лужники,1
механизм джаваскрипт,1
мидл варину,1
милиона онлайнкасс,1
милиона чеков,1
милионны разработку,1
минимум менять,1
минимум назвать,1
минимум традиционно,1
минус минус,1
минус мобикс,1
минусы минимум,1
минусы первых,1
минут задержаться,1
минут скорее,1
минуты вернусь,1
минуты расскажи,1
михаил понравился,1
михаил счастливо,1
михаил таня,1
михаил тимлид,1
михаилу расшарил,1
миш давай,1
миша максим,1
миша миш,1
миша расшарит,1
миша резюме,1
миши паралельно,1
мишина команда,1
многие программисты,1
многих разработчиков,1
мобекс исключительно,1
мобекс некоторые,1
мобикс недостаток,1
мобикс потяжелее,1
мобикс типа,1
мобикс флакс,1
мобикса минусы,1
мобиксом редуксом,1
мобильная связь,1
могла понадобиться,1
модекс всякие,1
модекс удобнее,1
модели происходят,1
моему объяснил,1
моему понятно,1
можем вызвать,1
можем двигаться,1
можем закидывать,1
можем закинуть,1
можем изменился,1
можем либо,1
можем мемозировать,1
можем наслаждаться,1
можем немножко,1
можем отследить,1
можем различные,1
можем рамках,1
можем рендер,1
можем случайно,1
можем создать,1
можем уверены,1
можем фазами,1
можем функциональность,1
можем хранить,1
можешь достаточно,1
можешь назвать,1
можешь нужен,1
можешь пишешь,1
мойбиксе посложнее,1
молодец видишь,1
молодец виду,1
молодец знаешь,1
молодец ожидал,1
молодец разумно,1
молодец расскажи,1
молока каких,1
момент плюс,1
момент учился,1
моменты помощи,1
монорепозиторий наверное,1
монтирования демонтирования,1
монтирования фаза,1
мутабельного поведения,1
мысль потерял,1
мэп позволяет,1
мэп фильтр,1
наблюдателя абсервера,1
набору твоих,1
наверно редуксу,1
наверное вспомню,1
наверное закончила,1
наверное заставлять,1
наверное изменился,1
наверное наладил,1
наверное началу,1
наверное очевидный,1
наверное писал,1
наверное пробывал,1
наверное простенько,1
наверное рассказываем,1
наверное спрашиваю,1
наверное субъективно,1
надежным бизнесом,1
надежным способом,1
надеюсь рады,1
назвал молодец,1
назвал сути,1
название функции,1
названия прокидываем,1
названия уходят,1
назвать обязательно,1
назвать пробывал,1
назывался помню,1
накапливает пачку,1
накладывает новое,1
накст некст,1
накста некста,1
наладил бук,1
нанимают наоборот,1
наоборот непонятно,1
написал класс,1
написал написал,1
написал нравишься,1
написал отладить,1
написал уровня,1
написали ближе,1
написали переходить,1
написали сделаем,1
написания небольшого,1
написаны старых,1
написать вар,1
написать всплывать,1
написать красивый,1
написать пишут,1
написать подобное,1
направлена ретейлер,1
направлением десяток,1
направления компании,1
например анонимную,1
например внутри,1
например вызывать,1
например джиквери,1
например написал,1
например нужен,1
например судя,1
например теории,1
например функции,1
напрямую обращения,1
напрямую пишем,1
напрямую принимает,1
нарваться андефайнд,1
нарваться грабли,1
нарваться месте,1
наслаждаться разработкой,1
наследование можем,1
наследовать друга,1
начали нашим,1
началу следующей,1
начнем классики,1
начну вернемся,1
нашего главного,1
нашей фронтенд,1
нашем редюсере,1
нашем сервисе,1
нашим знаешь,1
нашими клиентами,1
наших продуктов,1
небольшого магазинчика,1
недели получается,1
недели смогу,1
недостатках мобикса,1
недостаток основной,1
некоторому аккумулятору,1
некоторые присылают,1
некоторые программисты,1
некоторые фазы,1
некст серверный,1
некста сделали,1
немножечко пробежаться,1
немножечко сложный,1
немножко другим,1
немножко затролить,1
немножко конкретные,1
немножко нетрадиционный,1
немножко отключусь,1
немножко поговорить,1
немножко различие,1
немножко следуя,1
необходимо вызвать,1
непонятно будущем,1
непонятно непонятные,1
непонятные нанимают,1
непонятных жизненного,1
нетрадиционный пишут,1
нету редюсеров,1
нету явного,1
неудобно хотят,1
новогодних товаров,1
новое дерево,1
новом старым,1
новости слышишь,1
новостях любят,1
новые объект,1
нода генерить,1
нормально использовать,1
нравится отвечаешь,1
нравишься позволишь,1
нубикс эффектор,1
нужен аргументом,1
нужен инструмент,1
нужен нужен,1
нужен пропаду,1
нужен реф,1
нужен связи,1
нужен сервис,1
нужен случаях,1
нужен состоит,1
нужна знаешь,1
нужна крайне,1
нужна нода,1
нужна спрашивают,1
нужном виде,1
нюансы полгода,1
нём собственно,1
обернув провайдер,1
обернутая скобочке,1
обладает жизненным,1
области видимости,1
обновления монтирования,1
обновления ситуации,1
обновления фаза,1
обновлять узел,1
оборачиваем фанкшен,1
обрабатываем милиона,1
обрабатывает хранит,1
обратно давай,1
обратно слышно,1
обращения двум,1
обсуждать привет,1
обход дерева,1
общей сложности,1
общем деле,1
общем короче,1
общем обход,1
общем принципе,1
общем слушаешь,1
общем удобный,1
общения нашими,1
общих чертах,1
объект внутренние,1
объект менять,1
объект однозначно,1
объект содержит,1
объект соответственно,1
объект типа,1
объекты массивы,1
объявили объект,1
объявили переменная,1
объявили функциями,1
объявить внешнего,1
объявления функции,1
объявленные помощью,1
объявлено принципе,1
объявляем либо,1
объяснил думаю,1
объяснил объяснял,1
объяснил услышал,1
объяснял стор,1
обязательно прям,1
ограничение вырубилось,1
огромное количество,1
одна большая,1
однозначно определяться,1
однотипных личных,1
одну ветку,1
одну функцию,1
ожидал чё,1
ой выходит,1
ой знаешь,1
ой знаю,1
ой классно,1
ой назвал,1
ой ой,1
ой расскажи,1
ок супер,1
онлайн информацию,1
онлайнкасс подключено,1
ооо компани,1
ооп классическом,1
операций стей,1
операция выполняется,1
операция приведёт,1
описал состояние,1
описал функции,1
определению типа,1
определенная рудиция,1
определяться идентифицируют,1
оптимизацией дебагингом,1
оптимизацией чистая,1
оптимизацию редакс,1
оптимизация символ,1
оптимизировано сделал,1
оптимизирующих алгоритмов,1
опыт областях,1
организовать сервер,1
основа нашего,1
основная причина,1
основная фишка,1
основной тяжелый,1
основном первое,1
основном редакции,1
основных кейса,1
основных способа,1
особо полезная,1
особо таких,1
оставалась загруженой,1
остается использовать,1
остается юз,1
остался иконствами,1
остальным твоим,1
остановился недостатках,1
остаёмся связи,1
ответ вар,1
ответ запросы,1
ответил полностью,1
отвечаешь давай,1
отвечаешь получается,1
отвлекся немножко,1
отдавать сервер,1
отдел биг,1
отен помню,1
отказаться потратили,1
отключусь видео,1
отладке попроще,1
отлаживаемый знаешь,1
отличаются расскажешь,1
отличие конста,1
отличие контекстом,1
отличие основное,1
отличие фанкшен,1
отличия добавили,1
отлично оферу,1
относительно переменные,1
отправляет основа,1
отправляют онлайн,1
отработал конкретный,1
отследить можем,1
оттуда вытащить,1
отфильтровывает массив,1
отчет лк,1
отчетности устоявшийся,1
оферу держать,1
очевидное преимущество,1
очевидный получится,1
очередь ритейлерам,1
ошибка вижу,1
ошибки выглядит,1
ошибки подход,1
ошибку коде,1
пайлок подразумеваю,1
паралельно написал,1
парам реакт,1
парень приятно,1
партнеры тра,1
пару дня,1
пару минут,1
паттерн наблюдателя,1
пачку изменений,1
пачку накладывает,1
пейдж аплекейшин,1
пейдж апликейшн,1
первое доступ,1
первое принципе,1
первое проще,1
первое спросил,1
первую очередь,1
первых скоуб,1
первых сложнее,1
перевода реакт,1
передаем применяется,1
переизмены перерисовка,1
переиспользовать какие,1
переменная всплывать,1
переменная могла,1
переменная функциональную,1
переменная функция,1
переменную грубо,1
переменную использовать,1
переменную пишем,1
переменную поподробней,1
переменную функции,1
переменные объявленные,1
переменными можем,1
перемену вышестоящего,1
перемену использовать,1
переменые новые,1
перерисовалось управлять,1
перерисовка должна,1
перерисовка компонента,1
перерисовка любая,1
перерисовка переизмены,1
перерисовка помещаем,1
перерисовки соответственно,1
перерисовку компонента,1
перерисовок помощью,1
переруливаем наверно,1
перестали покупать,1
пересчитывать заново,1
переходим библиотеке,1
переходить реакту,1
переходить тратить,1
писал редакс,1
писал старом,1
писал хуках,1
писали допустим,1
пишем равно,1
пишем фанкшен,1
пишешь хуках,1
пишу библиотеку,1
пишу хуках,1
пишут здравомыслящим,1
пишут немножко,1
пишут реакте,1
пишут форсированный,1
плавнинько переходим,1
плавно переходить,1
плавно рулем,1
плане ладно,1
планы проекта,1
платным лень,1
плохие сложном,1
плохо видно,1
плюс вторая,1
плюс грамотно,1
плюс ко,1
плюс своими,1
побольше сделалаю,1
поведения редаксе,1
поводу виз,1
поводу можем,1
поводу реакта,1
повторяться поподробнее,1
поговорить писал,1
поговорить руководством,1
поговорить технической,1
поговорить язык,1
погоди реакт,1
подбежит собеседование,1
подбираю кандидатов,1
подгружать странички,1
подебажил илюшка,1
подключать помогать,1
подключают кассы,1
подключаются касса,1
подключена нашему,1
подключено нашему,1
подлавливать таких,1
подобное сложно,1
подожди лэт,1
подразумеваешь компонент,1
подразумеваю современный,1
подразумеваю хотим,1
подредюсеров редюсер,1
подробнее рассказать,1
подробно разъяснить,1
подробно рассказали,1
подсказываешь давай,1
подсчет каких,1
подумал вложенная,1
подумаю сходу,1
подход редко,1
позволишь добавить,1
позволяет каждой,1
позволяет преобразовать,1
позволяет фазу,1
позитивный парень,1
показал подебажил,1
покупал интернете,1
покупать утренних,1
полгода добавляют,1
поле каренд,1
полезная штука,1
полезный задавал,1
полностью согласен,1
половину написали,1
положим какое,1
получается информацию,1
получается собеседования,1
получится другому,1
получится летом,1
поля изменить,1
поменять способы,1
поместить какое,1
поместить какую,1
поместить тутже,1
помещаем стейт,1
помнишь компоненту,1
помню весит,1
помню легковесный,1
помню называется,1
помню общем,1
помню стрелочной,1
помогать качественно,1
помощи практической,1
помощью вар,1
помощью конст,1
помощью типа,1
помощью фанкшен,1
помощью юз,1
помощью юзреф,1
помощью юскалбэк,1
понадобиться объявления,1
понимаешь говоришь,1
понимаешь знаешь,1
понимаешь моему,1
понимаешь ой,1
понимаешь отвечаешь,1
понимаешь поводу,1
понимаешь реальной,1
понимаешь речь,1
понимании сторы,1
понимаю минут,1
понимаю прорабатывал,1
понравилось занимаетесь,1
понравился позитивный,1
понял первое,1
понял причем,1
понял самовызывающаяся,1
понял смотри,1
понял стой,1
понятия замыкание,1
понятно грамотно,1
понятно ладно,1
понятно молодец,1
понятно объяснил,1
понятно примеру,1
понятно слушаю,1
понятно современный,1
понятное код,1
понятный приятный,1
пообщаться вопросы,1
попадешь надеюсь,1
пописать дольше,1
поподробнее рассказать,1
поподробней спросишь,1
попробую задать,1
попроще поинтереснее,1
популярные какие,1
порядка семиста,1
порядке удобно,1
поскольку порядка,1
поскольку принимаем,1
последовательно рекурсию,1
посложнее используется,1
постепенно интегрировалась,1
потерял мобикс,1
потоки большие,1
потратили милионны,1
потяжелее идёт,1
похож человека,1
поэтому говорю,1
поэтому пошёл,1
прав деле,1
прав максимально,1
правильно анонимная,1
правильно знаешь,1
правильно изрев,1
правильно непонятных,1
правильно общем,1
правильно ответил,1
правильно правильно,1
правильно прокидывать,1
правильно рассказал,1
правильно скорость,1
правильно сохранение,1
правильно судя,1
правильно хотела,1
правильного понятно,1
правильный ответ,1
практике использовал,1
практической жизни,1
практической конструкции,1
практическом промышленном,1
превратились например,1
предварительно обернув,1
предвычисленное значение,1
предлагаем айти,1
предназначена подлавливать,1
предсказуемые моменты,1
представить ситуацию,1
представляю кейсов,1
представляют свете,1
предусматри возможность,1
предусматривал каких,1
преимущества мобикса,1
преимущество наследование,1
преимущество первых,1
преобразовать массив,1
преподаватель реакт,1
приведёт самая,1
привет аналитический,1
привет лидер,1
привет миша,1
привет нашей,1
приветствую привет,1
привлечь спокойно,1
привёл великолепно,1
приложение каунтером,1
приложение реакте,1
приложении всей,1
применяется каждому,1
применять такого,1
пример задачки,1
пример используют,1
примеру метро,1
принимаем обрабатываем,1
принимает обрабатывает,1
принимает стейт,1
принимать решение,1
принципе быстрый,1
принципе важно,1
принципе изменение,1
принципе код,1
принципе контекст,1
принципе любых,1
принципе написать,1
принципе нормально,1
принципе ответ,1
принципе понятно,1
принципе приложение,1
принципе рендер,1
принципе случилось,1
принципе справляемся,1
принципе страшно,1
присмотрюсь мелкий,1
присылают емаил,1
приходили чеки,1
приходится тащить,1
прицельно рекламные,1
причем приятно,1
причина пишут,1
пришли функционального,1
приятно пообщаться,1
приятно прочитал,1
приятно разговаривать,1
приятный компания,1
пробежаться принципе,1
проблема продздрилинга,1
проблему пробсдрининга,1
проблемы сео,1
пробсдрининга библиотека,1
пробсов прокинуть,1
проведёт собеседование,1
программе нужен,1
программировании какого,1
программирования возвращают,1
программиста простой,1
программисты знаю,1
программисты считают,1
программисты холиварят,1
продавать ритейлерам,1
продает каким,1
продается какое,1
продается цене,1
продаже новогодних,1
продлится общей,1
продуктов наверное,1
продуктов срезе,1
продукты достаточно,1
проект использует,1
проект написали,1
проект написания,1
проекта зависит,1
проекта михаил,1
произносить редакс,1
произошло необходимо,1
происходят изменения,1
прокидываем колбэком,1
прокидывает редюсер,1
прокидывать аштеемельку,1
прокидывать какое,1
прокинули грубо,1
прокинуть листе,1
промежуток можем,1
промышленном программировании,1
пропадала сожалению,1
пропаду немножко,1
пропсы достать,1
пропсы используются,1
пропсы смотрят,1
пропустить хуки,1
прорабатывал скорее,1
просов сути,1
простенько знаю,1
простенькое ой,1
прости чёт,1
простое автомат,1
простое приложение,1
простой понятный,1
простой способ,1
простой старому,1
простому каширование,1
простым путём,1
простых типа,1
проходил этап,1
проходит кучу,1
процесс программиста,1
прочее многие,1
прочитал усвоил,1
прощаемся максим,1
проще написал,1
прояснять рассказывать,1
прям верхам,1
прям кратко,1
прям руки,1
прямо знаешь,1
прямом эфире,1
прямых манипуляций,1
путаница действие,1
путём использовать,1
пытаюсь поговорить,1
пэха видал,1
работает классные,1
работает собственно,1
работал знаешь,1
работой работой,1
работой сорокаминутное,1
равно наверное,1
равно фанкшен,1
радостью честно,1
рады друга,1
разбиваем энное,1
развитием нашего,1
разговаривать подробно,1
разделить маленьких,1
различие старым,1
различные анализировать,1
различные фазы,1
различных срезах,1
различных фаз,1
разница например,1
разных действий,1
разных компаниях,1
разрабатывался путаница,1
разработать простое,1
разработке переменная,1
разработки проведёт,1
разработки скорее,1
разработкой грубо,1
разработку хотят,1
разработчика разных,1
разработчики названия,1
разработчиков давай,1
разумеется наверное,1
разумно говоришь,1
разъяснить деталях,1
разы редакс,1
рамках реакта,1
рамках функции,1
расскажешь словах,1
расскажещь плюсик,1
расскажи внимательно,1
расскажи какие,1
расскажи можешь,1
расскажи немножко,1
расскажи поводу,1
расскажи полезный,1
рассказал определенная,1
рассказал проект,1
рассказал расскажешь,1
рассказал сконцентрироваться,1
рассказала компании,1
рассказала нашей,1
рассказам понимаешь,1
рассказать бизнес,1
рассказать компонент,1
рассказать наверное,1
рассказать общем,1
рассказать спросишь,1
рассказываем скорее,1
рассказываешь понимаю,1
рассказывай порядке,1
рассказывать общем,1
расшарил показал,1
расшарил экран,1
расшарит экран,1
реакт браузере,1
реакт любим,1
реакт написал,1
реакт некоторые,1
реакт скорее,1
реакт собственно,1
реакт хозяйства,1
реакт юс,1
реакта крейд,1
реакта скорее,1
реакта смотри,1
реакте джейк,1
реакте забаговать,1
реакте новом,1
реакте самое,1
реакте собственно,1
реакту собственно,1
реализует флаг,1
реальной практической,1
реальной разработки,1
редакc стейт,1
редакс вместо,1
редакс вьюкс,1
редакс килобайта,1
редакс мобикс,1
редакс нужен,1
редакс отладке,1
редакс понятно,1
редакс соответственно,1
редаксе вызвали,1
редакции модекс,1
редис результат,1
редкие используемые,1
редко вроде,1
редко используется,1
редко речь,1
редукс какие,1
редукс плавно,1
редукс редакс,1
редукс редукс,1
редуксом кстати,1
редуксу кстати,1
редьюс соответственно,1
редюсер разбиваем,1
редюсер редюсер,1
редюсер хранится,1
редюсер чистая,1
редюсере принципе,1
редюсеров всяких,1
редюсеров диспатчей,1
результатов торговли,1
резюме максима,1
рекдексе целый,1
рекламные кампании,1
рекламным агентствам,1
рекрутер теоретические,1
рекурсию например,1
рендер вернуть,1
рендер пропустить,1
рендере менять,1
рендеринг блин,1
рендеринг грубо,1
рендеринг далее,1
рендеринг нужен,1
рендеринга например,1
рест классы,1
ретейлер одна,1
ретейлеров крупных,1
реф нужен,1
реф перерисовки,1
реф соответственно,1
речь идет,1
речь оптимизацию,1
речь оставалась,1
речь спрашивать,1
решает проблему,1
решения задачи,1
рисует красивые,1
ритейлерам рекламным,1
ритейлерам сравнение,1
ритейлеров направлена,1
ритейлеров углубиться,1
ритейлеры клиенты,1
ритейлеры подключаются,1
роботы читать,1
рудиция многих,1
руками написать,1
руками обновлять,1
руки сенс,1
руководством сделали,1
рулем понятно,1
рынком продается,1
сайд рендеринг,1
сайд рендеринга,1
сайтов хостинг,1
самая крайняя,1
самая основная,1
самое известное,1
самое менять,1
свете плане,1
своими руками,1
связанных мобиксом,1
связи буквально,1
связи держать,1
связи мобильная,1
связи спецификой,1
связь пропадала,1
сделаем заниматься,1
сделал максимально,1
сделали остается,1
сделали платным,1
сегодняшний кандидат,1
семиста клиентов,1
сео оптимизацией,1
сео оптимизация,1
сервер плюс,1
сервер сайд,1
серверный рендеринг,1
сервис сайд,1
сервисе скажем,1
сервису любых,1
сервису ритейлеры,1
сервисы продавать,1
сет стейт,1
сетей предлагаем,1
символ пейдж,1
синтаксис разный,1
синтаксис реакта,1
синтаксисом написать,1
ситуации например,1
ситуации плохие,1
ситуация наверное,1
ситуация например,1
скажем вебинтерфейс,1
скажем прицельно,1
скажи повторюсь,1
скажу реконстилешн,1
скобки оборачиваем,1
скобочке фанкшн,1
сколпа верхней,1
сколпа верхнеуровневую,1
сконцентрироваться конкретных,1
скоп контекст,1
скорее видели,1
скорее выходных,1
скорее монорепозиторий,1
скорее понимаешь,1
скорее правильно,1
скорее предусматривал,1
скорее рады,1
скорее стараются,1
скорость различные,1
скорость скорость,1
скоуб вторых,1
скрипт занимается,1
скрипты джеесовские,1
скрипты плюс,1
слабо упомянул,1
следовать умно,1
следующей недели,1
следуя остальным,1
слимп прочее,1
словарь значениями,1
словах знакомо,1
словах клиенты,1
словах рассказала,1
словах собеседований,1
сложнее дебажить,1
сложней минус,1
сложно различных,1
сложно спрашивать,1
сложное какое,1
сложном легаси,1
сложности скорее,1
сложные алгоритм,1
сложный знаешь,1
сломанная заведомо,1
случае мэп,1
случае редис,1
случайно нарваться,1
случаях основном,1
случилось большое,1
слушаешь новости,1
слушай внутри,1
слушал нравится,1
слушаю чувствую,1
слышать минуты,1
слышишь знаю,1
слышу извините,1
смогу точно,1
сможете экран,1
смотри зум,1
смотри какие,1
смотри компоненты,1
смотри правильно,1
смотрит вышестоящий,1
смотрит изменились,1
смотрит наверх,1
смотрю набору,1
смотря подразумеваешь,1
смотрят изменился,1
смысл ошибки,1
смысле всплытие,1
смысле хостинг,1
собеседование какие,1
собеседование похож,1
собеседование сегодняшний,1
собеседований голове,1
собеседования запланировал,1
собранный впак,1
собственно домом,1
собственно капотом,1
собственно объект,1
собственно пишут,1
собственно разница,1
собственно реакт,1
собственно реакте,1
собственно типа,1
соврала классная,1
современные любят,1
современные фреймворки,1
согласен говоришь,1
согласования английским,1
согласования внутри,1
согласования рендеринг,1
содержит объединение,1
содержит стейт,1
сожалению слышите,1
создаем какую,1
создаем наследовать,1
создать какую,1
создать одну,1
сообразишь задача,1
соответственно банда,1
соответственно ветка,1
соответственно динамически,1
соответственно зависимости,1
соответственно изменять,1
соответственно какому,1
соответственно кода,1
соответственно компонетапдэйт,1
соответственно мэп,1
соответственно основное,1
соответственно отдавать,1
соответственно преимущество,1
соответственно создаем,1
соответственно сравнивает,1
соответственно удобно,1
соответственно функция,1
соответственно экшн,1
соответственно элемент,1
сорокаминутное ограничение,1
сосредоточиться данных,1
составляющей поговорить,1
состояние каком,1
состояние меняют,1
состояние описал,1
состояние принципе,1
состоянием глобальное,1
состоянием делалось,1
сохранение предвычисленное,1
сохраняем результат,1
сочетание фанкшен,1
спецификой бизнеса,1
спокойно радостью,1
способ нарваться,1
способ объявления,1
способ фанкшен,1
способа бороться,1
способов решения,1
способом красивых,1
способы например,1
справляемся конкретно,1
спрашивать джаваскрипт,1
спрашивать хочу,1
спрашиваю какие,1
спрашиваю спрашиваю,1
спрашивают виртуальный,1
спрашивают жизни,1
спрашивают стараются,1
спред рест,1
спросил сложное,1
спросишь расскажу,1
сравнение рынком,1
сравнивает одну,1
сравнить доза,1
сре аналитические,1
средней цене,1
среднем можешь,1
срезах аналитические,1
срезе банков,1
срезе понятно,1
ссылку узел,1
стандарт относительно,1
стандарт хуках,1
становится легче,1
стараются последовательно,1
стараются типа,1
старом реакте,1
старому классовым,1
старым дживоскриптом,1
старым работал,1
старых технологиях,1
стей стейт,1
стейд накапливает,1
стейт вызове,1
стейт диспатч,1
стейт менеджер,1
стейт менять,1
стейт нашем,1
стейт помощью,1
стейт приложении,1
стейт прокинуть,1
стейт сет,1
стейт экшен,1
стейта какие,1
стейта сумасшедшая,1
степени исходя,1
степени сравнить,1
стой ер,1
стор думаю,1
стор корневой,1
стор мойбиксе,1
стор собственно,1
сторы создаем,1
стране подключена,1
странички либо,1
страшно знакома,1
страшной степени,1
стрелочная функция,1
стрелочной функции,1
строится дерево,1
субъективно хардкорные,1
судя практике,1
судя рассказываешь,1
сумасшедшая перерисовка,1
супер отлично,1
сути какие,1
сути основном,1
сути основных,1
сути содержит,1
сформировать таком,1
сходу представить,1
счастливо интересно,1
счетчик бац,1
считаю особо,1
считают модекс,1
счётчики превратились,1
таймаутов интервалов,1
таких прямо,1
таких умных,1
такого делу,1
такого мутабельного,1
такого рассказать,1
такого хранилища,1
таком духе,1
таня блин,1
таня красиво,1
таня подбежит,1
тарам парам,1
тащить десятки,1
тб тд,1
твоим рассказам,1
твоих знаний,1
тд тп,1
текущая ситуация,1
тела далее,1
тема вроде,1
тему подробнее,1
теоретические знания,1
теоретических задачах,1
теории спрашивают,1
термином знаком,1
тестовый пример,1
технической составляющей,1
технологии достаточно,1
технологиях использованием,1
тимлид нашей,1
тип видоизменяем,1
типа какого,1
типа кода,1
типа конс,1
типа конст,1
типа ошибку,1
типа разработать,1
типа стор,1
типа экшена,1
типичных способов,1
типом каким,1
типу накста,1
товаров увеличились,1
товаров целом,1
толковый технологии,1
торговли результатов,1
торговли точно,1
торговых марок,1
торговых сетей,1
точнее редкие,1
точно отчетности,1
тп альтернативный,1
тра написаны,1
тра тра,1
традиционно писали,1
тратить другим,1
третьей степени,1
третья касса,1
тройной равно,1
тру редьюс,1
тутже переменые,1
тяжеловесная операция,1
тяжеловесных операций,1
тяжелый насколько,1
увеличиваться заведомо,1
увеличились зимние,1
уверен понимаешь,1
уверены изменится,1
углубиться тему,1
удобнее ладно,1
удобно каких,1
удобно чувствую,1
удобный апи,1
узел прокидывать,1
узел проместить,1
узел узел,1
узлами операции,1
умно кейсы,1
умное называется,1
упомянул рассказал,1
управления состоянием,1
управлять жизненным,1
управлять контролировать,1
управлять состоянием,1
управлять функция,1
уровня вложености,1
усвоил понял,1
условию отфильтровывает,1
услышал контекст,1
услышал объяснил,1
услышал сочетание,1
устаревшие современные,1
устоявшийся бизнес,1
утренних новостях,1
уходят акцентируют,1
учился грубо,1
фаз оптимизирующих,1
фаза демонтирования,1
фаза монтирования,1
фазами жизненного,1
фазу обновления,1
фазы алгоритмы,1
фазы согласования,1
фанкшен декларейшн,1
фанкшен зис,1
фанкшен использовать,1
фанкшен какую,1
фанкшен название,1
фанкшен соответственно,1
фанкшен тб,1
фанкшин экспрешн,1
фанкшн экспрешн,1
фаншен декларейшн,1
фидбек миши,1
фидбек ок,1
фильтр массив,1
фильтр методы,1
фильтр поспросить,1
фильтр рассказать,1
фильтр соответственно,1
фишка принципе,1
флаг архитектурой,1
флакс вью,1
фнс напрямую,1
фнс отправляет,1
форсированный мелкий,1
фреймворк типу,1
фреймворки популярные,1
фрондент разработчика,1
фронта направлением,1
фронтенд долгос,1
фронтенд разработки,1
фронтендеры нём,1
фротенд направления,1
функции аргументы,1
функции бесконечно,1
функции вернуть,1
функции внутри,1
функции вышестоящего,1
функции деструктуризация,1
функции замкнет,1
функции замкнуть,1
функции знаешь,1
функции знаю,1
функции имеют,1
функции имеющая,1
функции использовать,1
функции классический,1
функции либо,1
функции никакого,1
функции отличаются,1
функции помощью,1
функции понимаешь,1
функции состояние,1
функции функции,1
функции функциональных,1
функционального программирования,1
функциональности преимущества,1
функциональность классовых,1
функциональную либо,1
функциональных компонентов,1
функцию вызывали,1
функцию заснуть,1
функцию переменную,1
функцию создать,1
функция берёт,1
функция верхняя,1
функция возвращает,1
функция использовать,1
функция некоторому,1
функция обернутая,1
функция принимает,1
функция счетчик,1
функция функции,1
функция шуткомпонента,1
функциями принципе,1
функщин функщинл,1
функщинл экспрессон,1
хадкорные любят,1
хардкорные программисты,1
хозяйства большая,1
хостинг объявляем,1
хостинг сайтов,1
хостинга переменная,1
хостинги слабо,1
хотел разделить,1
хотела простых,1
хотела хотела,1
хотела четвёртое,1
хотим стейт,1
хотят отказаться,1
хотят реакте,1
хочется поговорить,1
хочу наверное,1
хочу привлечь,1
хранилища котором,1
хранилище которое,1
хранилище можем,1
храним можем,1
хранит нужном,1
хранится логика,1
хранить какие,1
хранить проблем,1
хранить ссылку,1
хукам например,1
хукам немножечко,1
хуках единственный,1
хуках классах,1
хуках классовый,1
хуках подразумеваю,1
хуки функции,1
хуки хочется,1
хуки хуки,1
хуков ладно,1
хуков расскажи,1
целом видно,1
целом понравилось,1
целом ритейлеров,1
целом фидбек,1
целый отдел,1
целый проект,1
ценам аналитическом,1
цене продается,1
цене целом,1
цикла изучал,1
цикла управлять,1
цикла хуки,1
циклическая перерисовка,1
циклом компонента,1
циклом соответственно,1
части классах,1
чек отправляют,1
чеке фнс,1
чеки магазинов,1
чеков получается,1
чеков целый,1
человека видно,1
честно подробно,1
честно скажу,1
четвёртое собеседование,1
чистая аштеемелька,1
чистая функция,1
читать аштиемельки,1
читать вроде,1
чувствую понимаешь,1
чувствую расскажешь,1
чудесно знаешь,1
чудесно правильного,1
чудесно собственно,1
чё хостинги,1
чём ошибка,1
чём собственно,1
чёрт знает,1
чёт отвлекся,1
шапки перестали,1
штука юз,1
штуки библиотеки,1
шутка предназначена,1
шуткомпонента апдейт,1
эй медиа,1
эйчар директором,1
экран знакомьтесь,1
экран миша,1
экспрессон особо,1
экспрешн давай,1
экспрешн поэтому,1
экспрешн соответственно,1
экспрешн фаншен,1
экшен криэйтеры,1
экшен объект,1
экшен отработал,1
экшен прокидывает,1
экшена какие,1
экшена логика,1
экшенам можем,1
экшенах соответственно,1
экшн заданным,1
экшн криэйтеры,1
электронный документооборот,1
элемент поле,1
элементами ладно,1
элементов виртуальный,1
элементов дерево,1
элементов используем,1
элементу массива,1
элементу реф,1
элементы колбэк,1
энное количество,1
этап этапы,1
этап явно,1
эффект можем,1
эффектор юикс,1
юз мемай,1
юз эффекте,1
юзмема можем,1
юзреф можем,1
юикс энджерикс,1
юс велд,1
юскалбэк юзмема,1
явно говорят,1
явного такого,1
язык джаваскрипт,1
