word,n
знаешь,19
правильно,15
принципе,12
ладно,11
классно,9
наверное,9
нужен,9
реакт,9
какие,8
молодец,8
немножко,8
понимаешь,8
например,7
ой,7
понятно,7
скорее,7
собственно,7
давай,6
расскажи,6
типа,6
контекст,5
кстати,5
написать,5
поводу,5
редакс,5
редукс,5
функции,5
вар,4
говоришь,4
деле,4
код,4
можешь,4
писал,4
пишут,4
поговорить,4
рассказал,4
реакте,4
смотри,4
сути,4
таня,4
бла,3
бывают,3
вок,3
вопросы,3
достаточно,3
жизненного,3
задача,3
знаю,3
ин,3
компании,3
компонентов,3
конкретные,3
написал,3
написали,3
нужна,3
общем,3
перерисовка,3
программисты,3
проект,3
простой,3
расскажешь,3
речь,3
связи,3
спрашивают,3
хостинг,3
хуках,3
цикла,3
чудесно,3
ага,2
блин,2
блок,2
быстрее,2
видимости,2
видно,2
виду,2
виртуальный,2
вместо,2
внимательно,2
вырубилось,2
вью,2
говоря,2
двойной,2
действий,2
деталях,2
джаваскрипт,2
джеквери,2
домом,2
другим,2
другому,2
думаю,2
жизни,2
заведомо,2
задачи,2
занимаемся,2
запросы,2
изменить,2
используют,2
компания,2
компонент,2
конс,2
короче,2
листочке,2
логично,2
любят,2
максимально,2
медиа,2
менять,2
минимум,2
минуты,2
мобикс,2
модекс,2
моему,2
надежным,2
назвал,2
назвать,2
нарваться,2
нашей,2
немножечко,2
непонятно,2
обратно,2
объяснил,2
операция,2
ответ,2
отвечаешь,2
отличаются,2
переходить,2
плавно,2
половину,2
получится,2
помощи,2
понимаю,2
понял,2
прав,2
практической,2
приложение,2
пример,2
приятно,2
пробывал,2
простое,2
работой,2
рады,2
рассказывай,2
реакта,2
реальной,2
редко,2
рендеринг,2
сайд,2
скорость,2
сложный,2
смысле,2
современные,2
современный,2
спрашивать,2
спрашиваю,2
стандарт,2
стараются,2
стейт,2
стор,2
судя,2
таких,2
такого,2
торговли,2
тра,2
услышал,2
функция,2
хотят,2
хочу,2
хукам,2
хуков,2
целый,2
чувствую,2
автомат,1
айайф,1
анализировать,1
английски,1
английское,1
ангуляр,1
анонимная,1
анонимную,1
анонимные,1
антифайн,1
бац,1
бегать,1
бесплатный,1
библиотеке,1
библиотеки,1
библиотекой,1
библиотеку,1
биг,1
бизнес,1
бизнеса,1
бизнесом,1
ближе,1
блоги,1
боксов,1
большая,1
большей,1
большие,1
большое,1
бороться,1
будущем,1
бук,1
буквально,1
быстрый,1
быстрым,1
бэкенду,1
валд,1
варом,1
велд,1
вернусь,1
вещах,1
вещи,1
видал,1
видели,1
видео,1
виджет,1
видимо,1
видишь,1
видна,1
виз,1
виртуальным,1
вложености,1
внешнего,1
внутренний,1
внутри,1
возможность,1
ворк,1
воскриптом,1
всей,1
всплывать,1
всплытие,1
всякие,1
всяких,1
въехать,1
вынуждены,1
выпадал,1
выполняется,1
выстрелить,1
выходит,1
вьюкс,1
глобально,1
глобальной,1
глядишь,1
гонятся,1
грабли,1
грамотно,1
грубо,1
дата,1
двум,1
дебагингом,1
действие,1
делу,1
дерево,1
десятки,1
десяток,1
джава,1
джаваскрипта,1
джаваскриптовыми,1
джеваскрипт,1
дживоскриптом,1
джиквери,1
дизайнер,1
дикори,1
добавил,1
добавили,1
добавляют,1
долгих,1
долгос,1
должна,1
допустим,1
друга,1
единственный,1
желания,1
забаговать,1
загруженой,1
задавал,1
задам,1
задать,1
задачах,1
задачей,1
задачки,1
задачу,1
закончились,1
замыкание,1
занимается,1
заниматься,1
заснуть,1
заставлять,1
затролить,1
звать,1
здравомыслящим,1
знает,1
знакома,1
знакомы,1
знаний,1
знатоков,1
значение,1
зум,1
идет,1
известное,1
извини,1
извините,1
изменении,1
изменения,1
изменяет,1
изначально,1
изрев,1
изучал,1
иконствами,1
илюшка,1
имени,1
имею,1
имеющая,1
интегрировалась,1
интересное,1
интл,1
информации,1
искать,1
использовал,1
использованием,1
использовать,1
используемые,1
использует,1
используется,1
исходя,1
ищу,1
кабинет,1
кабинетов,1
каким,1
каких,1
какого,1
какое,1
калашникова,1
каунтером,1
кейсы,1
класс,1
классах,1
классики,1
классная,1
классные,1
классный,1
классных,1
классовый,1
классовым,1
клиента,1
кода,1
коде,1
колбэк,1
командой,1
компоненту,1
компоненты,1
конкретно,1
конкретный,1
конкретных,1
консен,1
конст,1
консте,1
конструкции,1
корректно,1
которую,1
крайне,1
крайняя,1
красиво,1
красивые,1
красивый,1
красивых,1
криэйтеры,1
крутая,1
кучу,1
легаси,1
лень,1
летом,1
либо,1
лидер,1
линк,1
листе,1
личных,1
лк,1
лэт,1
любая,1
любим,1
любых,1
магазинчика,1
максим,1
маленьких,1
манипулирует,1
мелкий,1
мемай,1
мемоизация,1
месте,1
милионны,1
минусы,1
минут,1
михаил,1
многие,1
многих,1
мобекс,1
мобиксом,1
мобильная,1
модели,1
можем,1
момент,1
моменты,1
монорепозиторий,1
мэп,1
набору,1
наверно,1
надеюсь,1
называется,1
накст,1
наладил,1
нанимают,1
наоборот,1
написания,1
написаны,1
направлением,1
направления,1
напрямую,1
начнем,1
нашёл,1
небольшого,1
некоторые,1
некст,1
непонятные,1
непонятных,1
нетрадиционный,1
неудобно,1
новом,1
новым,1
ногу,1
нравится,1
нюансы,1
нём,1
области,1
область,1
областях,1
обращения,1
общей,1
объединение,1
объект,1
объектами,1
объявили,1
объявить,1
объяснял,1
обязательно,1
ограничение,1
однотипных,1
ожидал,1
операции,1
операций,1
определенная,1
оптимизацией,1
оптимизировано,1
опыт,1
организовать,1
основная,1
основном,1
основных,1
особо,1
оставалась,1
остался,1
остальным,1
ответил,1
отвлекся,1
отдел,1
отказаться,1
отключусь,1
отладить,1
отлаживаемый,1
отличия,1
отчет,1
отчетности,1
очевидный,1
ошибки,1
ошибку,1
парам,1
партнеры,1
перевода,1
переизмены,1
перемену,1
переруливаем,1
переходим,1
писали,1
пишешь,1
пишу,1
плавнинько,1
плане,1
платным,1
плохие,1
плюсик,1
побольше,1
подбежит,1
подебажил,1
подлавливать,1
подожди,1
подразумеваю,1
подробно,1
подсказываешь,1
подход,1
показал,1
полгода,1
полезный,1
полностью,1
получается,1
поменять,1
помнишь,1
понятия,1
понятное,1
понятный,1
пообщаться,1
попадешь,1
попробую,1
популярные,1
порядке,1
последовательно,1
поспросить,1
постепенно,1
потоки,1
потратили,1
похож,1
правильного,1
правильный,1
практике,1
практическом,1
превратились,1
предвычисленное,1
предназначена,1
предсказуемые,1
представляют,1
предусматри,1
предусматривал,1
преподаватель,1
приведёт,1
привет,1
приветствую,1
привлечь,1
приложении,1
применять,1
приходится,1
причем,1
приятный,1
пробежаться,1
проблема,1
пробсов,1
программе,1
программировании,1
программиста,1
продздрилинга,1
продлится,1
произносить,1
происходят,1
прокинуть,1
промышленном,1
пропадала,1
пропаду,1
прорабатывал,1
просов,1
простенько,1
простенькое,1
прости,1
простых,1
проходит,1
процесс,1
процесса,1
прочее,1
прочитал,1
прояснять,1
прям,1
прямо,1
прямом,1
путаница,1
пытаюсь,1
пэха,1
работает,1
работал,1
равно,1
радостью,1
разделить,1
различие,1
разница,1
разных,1
разрабатывался,1
разработать,1
разработки,1
разработку,1
разработчиков,1
разумно,1
разъяснить,1
расскажещь,1
рассказала,1
рассказам,1
рассказать,1
рассказываем,1
рассказываешь,1
рассказывать,1
расшарил,1
реакту,1
редакса,1
редакции,1
редкие,1
редуксом,1
редуксу,1
редьюс,1
редюсеров,1
результатов,1
рекдексе,1
рекурсию,1
рендере,1
рендеринга,1
реф,1
решения,1
рисует,1
рудиция,1
руки,1
руководством,1
рулем,1
сайтов,1
самая,1
самое,1
свете,1
связанных,1
связь,1
сделаем,1
сделал,1
сделалаю,1
сделали,1
сенс,1
сервер,1
серверный,1
серверу,1
сервис,1
серьезно,1
синтаксис,1
синтаксисом,1
ситуации,1
ситуацию,1
ситуация,1
скажи,1
сконцентрироваться,1
скрипт,1
слабо,1
следовать,1
следуя,1
слимп,1
сложно,1
сложном,1
сложности,1
сломанная,1
случилось,1
слушал,1
слушаю,1
слышать,1
слышите,1
слышно,1
слышу,1
смотрю,1
смысл,1
собеседование,1
собеседования,1
соврала,1
согласен,1
содержит,1
сожалению,1
сообразишь,1
сорокаминутное,1
составляющей,1
состоит,1
состояние,1
сохранение,1
спецификой,1
спокойно,1
способ,1
способа,1
способов,1
способом,1
способы,1
справляемся,1
среднем,1
старом,1
старому,1
старым,1
старых,1
стей,1
стейта,1
степени,1
страшно,1
страшной,1
стрелочные,1
субъективно,1
сумасшедшая,1
счетчик,1
считают,1
счётчики,1
таней,1
тарам,1
тащить,1
твоим,1
твоих,1
теоретических,1
теории,1
тестовый,1
технической,1
технологии,1
технологиях,1
типичных,1
толковый,1
точнее,1
точно,1
традиционно,1
тратить,1
тройной,1
тяжеловесная,1
тяжеловесных,1
увеличиваться,1
уверен,1
удобнее,1
удобно,1
узлами,1
умно,1
умное,1
умных,1
упомянул,1
уровня,1
усвоил,1
устаревшие,1
устоявшийся,1
учился,1
фильтр,1
фишка,1
флакс,1
форсированный,1
фреймворки,1
фронта,1
фронтенд,1
фронтендеры,1
фротенд,1
функцию,1
функщин,1
функщинл,1
хадкорные,1
хардкорные,1
хозяйства,1
холиварят,1
хостинги,1
хотел,1
хотела,1
хочется,1
хуки,1
циклическая,1
чеков,1
человека,1
честно,1
чё,1
чём,1
чёрт,1
чёт,1
штуки,1
шутка,1
э,1
эй,1
экспрессон,1
экшн,1
элементам,1
элементами,1
эфире,1
юз,1
язык,1
